Generate tibble of covariate relations to test — test_relations • NMproject
…
    add_cov(), covariate_step_tibble(), bind_covariate_results()

    Examples

dtest <- test_relations(param = c("KA", "K", "V"),
                        cov = c("LIN1", "LIN2", "LIN3", "RND1", "RND2", "RND3"),
                        state = c("linear", "power"),
                        continuous = TRUE) %>%
         test_relations(param = c("KA", "K", "V"),
                        cov = "BN1",
                        state = "linear",
                        continuous = FALSE)

dtest
#> # A tibble: 39 × 4
#>    param cov   state  continuous
#>    <chr> <chr> <chr>  <lgl>     
#>  1 KA    LIN1  linear TRUE      
#>  2 K     LIN1  linear TRUE      
#>  3 V     LIN1  linear TRUE      
#>  4 KA    LIN2  linear TRUE      
#>  5 K     LIN2  linear TRUE      
#>  6 V     LIN2  linear TRUE      
#>  7 KA    LIN3  linear TRUE      
#>  8 K     LIN3  linear TRUE      
#>  9 V     LIN3  linear TRUE      
#> 10 KA    RND1  linear TRUE      
#> # … with 29 more rows
…
